…
From here, you are returned all parameters you can use for this dataset.

To get all available Values for each of the above parameters you can use
`beaParamValues`.

``` r
beaParamValues(
  DatasetName = "Regional",
  ParameterName = "TableName"
)
#> # A tibble: 94 × 2
#>    Key      Desc                                                                
#>    <chr>    <chr>                                                               
#>  1 CAEMP25N Total full-time and part-time employment by NAICS industry          
#>  2 CAEMP25S Total full-time and part-time employment by SIC industry            
#>  3 CAGDP1   County and MSA gross domestic product (GDP) summary                 
#>  4 CAGDP11  Contributions to percent change in real GDP                         
#>  5 CAGDP2   Gross domestic product (GDP) by county and metropolitan area        
#>  6 CAGDP8   Chain-type quantity indexes for real GDP by county and metropolitan…
#>  7 CAGDP9   Real GDP by county and metropolitan area                            
#>  8 CAINC1   County and MSA personal income summary: personal income, population…
#>  9 CAINC30  Economic profile                                                    
#> 10 CAINC35  Personal current transfer receipts                                  
#> # ℹ 84 more rows
```

For this example we’ll look at Real GDP which is Table Value : “CAGDP9”

You can get all available linecodes for the ‘Regional’ dataset you can
run `beaParamValues` and enter ‘linecode’ for the ParameterName.
However, an easier command is `beaParamValuesFiltered` which allows you
to view linecodes only for your table of interest: “CAGDP9”

``` r
beaParamValuesFiltered(
  DatasetName = "Regional",
  TargetParameter = "linecode",
  TableName = "CAGDP9"
)
#> # A tibble: 34 × 2
#>    Key   Desc                                                               
#>    <chr> <chr>                                                              
#>  1 1     [CAGDP9] Real GDP: All industry total                              
#>  2 10    [CAGDP9] Real GDP: Utilities (22)                                  
#>  3 11    [CAGDP9] Real GDP: Construction (23)                               
#>  4 12    [CAGDP9] Real GDP: Manufacturing (31-33)                           
#>  5 13    [CAGDP9] Real GDP: Durable goods manufacturing (321,327-339)       
#>  6 2     [CAGDP9] Real GDP: Private industries                              
#>  7 25    [CAGDP9] Real GDP: Nondurable goods manufacturing (311-316,322-326)
#>  8 3     [CAGDP9] Real GDP: Agriculture, forestry, fishing and hunting (11) 
#>  9 34    [CAGDP9] Real GDP: Wholesale trade (42)                            
#> 10 35    [CAGDP9] Real GDP: Retail trade (44-45)                            
#> # ℹ 24 more rows
```
…
